1,2,3,4
2.4674e+06,2.4674e+05,16449,2.216e-07
1.9293e+06,1.6078e+05,7145.6,1.8551e-07
2.0901e+06,1.2058e+05,7145.6,1.8841e-07
2.2509e+06,1.2058e+05,5359.2,1.9403e-07
7.5566e+05,35984,1713.5,1.7491e-07
7812,147.95,14.795,1.3668e-10
7.6146e+05,25103,1521.4,1.3458e-07
9.4535e+05,19293,1753.9,1.9046e-07
1.0856e+06,20679,1409.9,2.3396e-07
7.9528e+05,28403,2058.2,1.1237e-07
1.7035e+06,32448,2116.2,3.0397e-07
1.7728e+06,58445,3247,2.4785e-07
1.9092e+06,38964,3247,2.5851e-07
2.0456e+06,38964,2435.2,2.6875e-07
2.4612e+06,50229,4018.3,2.2815e-07
2.3903e+06,45529,2731.8,2.2577e-07
3.1419e+06,1.0358e+05,5311.7,1.9317e-07
3.0393e+06,76622,4911.7,1.8931e-07
4.2871e+06,1.3124e+05,4860.7,1.5881e-07
3.3764e+06,68907,5104.2,1.5153e-07
3.2207e+06,61347,3408.2,1.5056e-07
4.388e+06,78357,2902.1,1.5232e-07
4.8326e+06,4.9313e+07,12176,0
5.0602e+05,11245,581.63,6.7247e-08
8.3207e+05,17335,597.75,1.6215e-07
4.8658e+06,99303,7093,1.2495e-07
5.4732e+06,1.6755e+05,5777.5,1.0791e-07
2.9927e+06,60827,1474.6,2.6178e-07
2.9221e+06,1.9481e+05,3607.6,2.005e-07
